HW 03
…
The first pivot_longer reshapes the data from wide to long. All columns that begin with “exp_” are turned into two columns, “explanatory” that holds the name of the variable and “explanatory_value” holds the actual value for that column.

The second is also reshaping from wide to long. This time all columns that begin with “resp_” are turned into two columns, “response” which is the name of the response question and “response_value” with the corresponding score.

covid_survey_longer

# A tibble: 43,428 × 5
   response_id explanatory    explanatory_value response          response_value
         <dbl> <chr>          <chr>             <chr>                      <dbl>
 1           1 exp_profession Nursing           resp_safety                    5
 2           1 exp_profession Nursing           resp_confidence_…              2
 3           1 exp_profession Nursing           resp_concern_saf…              2
 4           1 exp_profession Nursing           resp_feel_safe_a…              1
 5           1 exp_profession Nursing           resp_will_recomm…              1
 6           1 exp_profession Nursing           resp_trust_info                1
 7           1 exp_flu_vax    Yes               resp_safety                    5
 8           1 exp_flu_vax    Yes               resp_confidence_…              2
 9           1 exp_flu_vax    Yes               resp_concern_saf…              2
10           1 exp_flu_vax    Yes               resp_feel_safe_a…              1
# ℹ 43,418 more rows

covid_survey_summary_stats_by_group <- covid_survey_longer |>
  group_by(explanatory, explanatory_value, response) |>
  summarize(
    mean = mean(response_value, na.rm = TRUE),
    low  = quantile(response_value, 0.10, na.rm = TRUE),
    high = quantile(response_value, 0.90, na.rm = TRUE),
    .groups = "drop"
  )

covid_survey_summary_stats_by_group

# A tibble: 126 × 6
   explanatory explanatory_value response                 mean   low  high
   <chr>       <chr>             <chr>                   <dbl> <dbl> <dbl>
 1 exp_age_bin 21–25             resp_concern_safety      3.32     2     5
 2 exp_age_bin 21–25             resp_confidence_science  1.31     1     2
 3 exp_age_bin 21–25             resp_feel_safe_at_work   1.20     1     2
 4 exp_age_bin 21–25             resp_safety              1.95     1     5
 5 exp_age_bin 21–25             resp_trust_info          1.29     1     2
 6 exp_age_bin 21–25             resp_will_recommend      1.09     1     1
 7 exp_age_bin 26–30             resp_concern_safety      3.35     1     5
 8 exp_age_bin 26–30             resp_confidence_science  1.40     1     2
 9 exp_age_bin 26–30             resp_feel_safe_at_work   1.29     1     2
10 exp_age_bin 26–30             resp_safety              2.16     1     5
# ℹ 116 more rows
…
4 - COVID survey - re-reconstruct

covid_survey_summary_stats_by_group_quar <- covid_survey_longer |>
  group_by(explanatory, explanatory_value, response) |>
  summarize(
    mean = mean(response_value, na.rm = TRUE),
    low  = quantile(response_value, 0.25, na.rm = TRUE),
    high = quantile(response_value, 0.75, na.rm = TRUE),
    .groups = "drop"
  )

covid_survey_summary_stats_by_group_quar

# A tibble: 126 × 6
   explanatory explanatory_value response                 mean   low  high
   <chr>       <chr>             <chr>                   <dbl> <dbl> <dbl>
 1 exp_age_bin 21–25             resp_concern_safety      3.32     2   4  
 2 exp_age_bin 21–25             resp_confidence_science  1.31     1   2  
 3 exp_age_bin 21–25             resp_feel_safe_at_work   1.20     1   1  
 4 exp_age_bin 21–25             resp_safety              1.95     1   2  
 5 exp_age_bin 21–25             resp_trust_info          1.29     1   1  
 6 exp_age_bin 21–25             resp_will_recommend      1.09     1   1  
 7 exp_age_bin 26–30             resp_concern_safety      3.35     2   4.5
 8 exp_age_bin 26–30             resp_confidence_science  1.40     1   2  
 9 exp_age_bin 26–30             resp_feel_safe_at_work   1.29     1   1  
10 exp_age_bin 26–30             resp_safety              2.16     1   4  
# ℹ 116 more rows
…
